id;points;temps_senior;temps_master1;temps_master2
1;20;35;40;45
2;19;36;41;46
3;18;37;42;47
4;17;38;43;48
5;16;39;44;49
6;15;40;45;50
7;14;41;46;51
8;13;42;47;52
9;12;43;48;53
10;11;44;49;54
11;10;45;50;55
12;9;46;51;56
13;8;47;52;57
14;7;48;53;58
15;6;49;54;59
16;5;50;55;60
17;4;51;56;61
18;3;52;57;62
19;2;53;58;63
20;1;54;59;64
21;0;>54;>59;>64
