id;points;temps_senior;temps_master1;temps_master2
1;20;45;50;55
2;19;46;51;56
3;18;47;52;57
4;17;48;53;58
5;16;49;54;59
6;15;50;55;60
7;14;51;56;61
8;13;52;57;62
9;12;53;58;63
10;11;54;59;64
11;10;55;60;65
12;9;56;61;66
13;8;57;62;67
14;7;58;63;68
15;6;59;64;69
16;5;60;65;70
17;4;61;66;71
18;3;62;67;72
19;2;63;68;73
20;1;64;69;74
21;0;>64;>69;>74
